{
  "connection": "default",
  "collectionName": "restaurants",
  "info": {
    "name": "restaurant",
    "description": "contoh app restoran"
  },
  "options": {
    "increments": true,
    "timestamps": true,
    "comment": ""
  },
  "attributes": {
    "name": {
      "default": "",
      "type": "string"
    },
    "description": {
      "default": "",
      "type": "text"
    },
    "image": {
      "model": "file",
      "via": "related",
      "plugin": "upload",
      "required": false
    },
    "dishes": {
      "collection": "dish",
      "via": "restaurant"
    }
  }
}